{
  "data": [
    {
      "responseCodes": [
        {
          "responseCode": 3,
          "responseDesc": "Took Another Position",
          "responseType": "Decline"
        },
        {
          "responseCode": 6,
          "responseDesc": "Rate Isn't Acceptable",
          "responseType": "Counter"
        },
        {
          "responseCode": 5,
          "responseDesc": "Start Date Isn't Acceptable",
          "responseType": "Counter"
        },
        {
          "responseCode": 2,
          "responseDesc": "No Longer Interested In This Position",
          "responseType": "Decline"
        },
        {
          "responseCode": 1,
          "responseDesc": "Accept",
          "responseType": "Accept"
        },
        {
          "responseCode": 4,
          "responseDesc": "Other",
          "responseType": "Counter"
        }
      ]
    }
  ]
}